^D:\PATRICIOH\DOCUMENTS\VISUAL STUDIO 2017\PROJECTS\OOPSGPD0716_10976\BINARYCOUNT\X64\DEBUG\MAIN.OBJ
D:\PATRICIOH\DOCUMENTS\VISUAL STUDIO 2017\PROJECTS\OOPSGPD0716_10976\X64\DEBUG\BINARYCOUNT.ILK
D:\PATRICIOH\DOCUMENTS\VISUAL STUDIO 2017\PROJECTS\OOPSGPD0716_10976\X64\DEBUG\BINARYCOUNT.EXE
D:\PATRICIOH\DOCUMENTS\VISUAL STUDIO 2017\PROJECTS\OOPSGPD0716_10976\X64\DEBUG\BINARYCOUNT.PDB
