^D:\PATRICIOH\DOCUMENTS\VISUAL STUDIO 2017\PROJECTS\OOPSGPD0716_10976\SUMA\X64\DEBUG\MAIN.OBJ
D:\PATRICIOH\DOCUMENTS\VISUAL STUDIO 2017\PROJECTS\OOPSGPD0716_10976\X64\DEBUG\SUMA.ILK
D:\PATRICIOH\DOCUMENTS\VISUAL STUDIO 2017\PROJECTS\OOPSGPD0716_10976\X64\DEBUG\SUMA.EXE
D:\PATRICIOH\DOCUMENTS\VISUAL STUDIO 2017\PROJECTS\OOPSGPD0716_10976\X64\DEBUG\SUMA.PDB
