^D:\PATRICIOH\DOCUMENTS\VISUAL STUDIO 2017\PROJECTS\OOPSGPD0716_10976\BUBBLESORT\MAIN.CPP
D:\PATRICIOH\DOCUMENTS\VISUAL STUDIO 2017\PROJECTS\OOPSGPD0716_10976\BUBBLESORT\X64\DEBUG\VC141.PDB
D:\PATRICIOH\DOCUMENTS\VISUAL STUDIO 2017\PROJECTS\OOPSGPD0716_10976\BUBBLESORT\X64\DEBUG\VC141.IDB
D:\PATRICIOH\DOCUMENTS\VISUAL STUDIO 2017\PROJECTS\OOPSGPD0716_10976\BUBBLESORT\X64\DEBUG\MAIN.OBJ
